<?xml version="1.0" standalone="no"?>
<!DOCTYPE svg PUBLIC "-//W3C//DTD SVG 20010904//EN"
 "http://www.w3.org/TR/2001/REC-SVG-20010904/DTD/svg10.dtd">
<svg version="1.0" xmlns="http://www.w3.org/2000/svg" viewBox="0 0 406.000000 414.000000"
 preserveAspectRatio="xMidYMid meet">
<metadata>
Created by potrace 1.13, written by Peter Selinger 2001-2015
</metadata>
<g transform="translate(0.000000,414.000000) scale(0.100000,-0.100000)"
fill="#FFFFFF" style="stroke-width: 1px;">
<path d="M1091 4091 c-34 -18 -70 -71 -71 -103 0 -25 7 -23 47 12 40 35 57 37
100 10 103 -62 75 -210 -63 -339 -51 -48 -94 -75 -200 -126 -73 -36 -195 -95
-270 -131 -146 -70 -209 -119 -263 -203 -41 -63 -65 -161 -58 -231 7 -60 25
-120 36 -120 4 0 17 24 30 54 41 99 191 224 272 226 8 1 23 15 34 33 11 18 37
43 58 56 41 27 47 49 18 75 -51 46 -151 24 -252 -56 l-64 -51 45 48 c109 114
222 142 367 91 96 -34 156 -34 224 2 29 15 54 32 56 38 4 12 -55 40 -106 50
-30 5 -32 8 -16 16 12 7 34 7 70 -2 29 -7 64 -10 78 -6 40 10 148 77 144 90
-6 20 -74 47 -126 49 -28 1 -51 5 -51 8 0 3 19 15 42 25 24 10 62 33 84 51 47
35 211 92 339 117 394 77 802 29 1160 -138 566 -265 972 -774 1094 -1373 157
-770 -204 -1555 -899 -1952 -276 -159 -590 -241 -917 -241 -182 0 -281 11
-443 51 -223 55 -416 138 -600 259 -125 83 -185 132 -303 248 -175 171 -280
316 -382 527 -188 385 -241 798 -154 1193 34 154 34 154 4 182 -32 30 -37 25
-59 -79 -95 -439 -40 -895 154 -1300 161 -333 397 -600 711 -804 584 -380
1342 -429 1968 -127 577 279 961 809 1055 1457 21 143 21 398 0 544 -92 661
-506 1229 -1105 1519 -445 214 -975 263 -1433 130 -38 -11 -72 -18 -74 -15 -2
2 -6 27 -8 55 -5 56 -25 114 -52 144 -47 52 -157 71 -221 37z"/>
<path d="M2111 2569 c-84 -14 -193 -72 -254 -133 -149 -152 -180 -401 -76
-608 112 -222 423 -312 667 -192 61 30 73 39 70 57 -4 32 -30 32 -82 -1 -143
-91 -341 -79 -484 30 -239 179 -243 520 -8 709 141 115 346 130 492 37 52 -32
78 -33 82 -2 2 16 -10 28 -57 53 -101 54 -222 71 -350 50z"/>
<path d="M2917 2570 c-124 -32 -181 -98 -181 -210 0 -118 52 -165 269 -240
142 -49 189 -75 238 -129 65 -72 72 -173 17 -249 -35 -49 -80 -77 -155 -97
-74 -19 -116 -19 -189 0 -105 28 -173 90 -198 183 -10 34 -17 42 -35 42 -27 0
-30 -21 -12 -85 20 -70 63 -121 132 -154 191 -94 449 -46 518 96 19 39 24 64
24 133 0 75 -3 90 -28 133 -35 58 -87 98 -175 131 -37 14 -104 39 -149 56
-105 40 -171 85 -196 133 -17 34 -18 43 -7 80 35 118 194 173 318 111 56 -28
102 -83 102 -121 0 -19 6 -23 29 -23 29 0 30 1 24 38 -17 109 -95 168 -235
177 -40 2 -90 0 -111 -5z"/>
<path d="M770 2545 c-7 -8 -10 -21 -7 -29 7 -19 699 -586 715 -586 9 0 12 70
12 315 l0 315 -25 0 -25 0 0 -254 c0 -140 -3 -257 -7 -259 -5 -2 -141 105
-303 240 -162 134 -307 250 -321 258 -24 13 -29 13 -39 0z"/>
<path d="M710 1921 l0 -321 25 0 25 0 0 255 c0 160 4 255 10 255 5 0 150 -115
321 -256 250 -205 316 -255 328 -247 9 6 17 17 19 25 2 9 -132 126 -354 309
-197 162 -361 296 -366 297 -4 2 -8 -141 -8 -317z"/>
</g>
</svg>
